{
  "project_info": {
    "project_number": "373748050093",
    "firebase_url": "https://greenkilometer-b3955.firebaseio.com",
    "project_id": "greenkilometer-b3955",
    "storage_bucket": "greenkilometer-b3955.appspot.com"
  },
  "client": [
    {
      "client_info": {
        "mobilesdk_app_id": "1:373748050093:android:6657b09e9f35bf1313fe24",
        "android_client_info": {
          "package_name": "com.example.greenkilometer"
        }
      },
      "oauth_client": [
        {
          "client_id": "373748050093-pipmvh110lrcbpajugmhcpueh3arlgp0.apps.googleusercontent.com",
          "client_type": 1,
          "android_info": {
            "package_name": "com.example.greenkilometer",
            "certificate_hash": "51c777e18c102d806a935ae7856eba4b59edcd99"
          }
        },
        {
          "client_id": "373748050093-o804hth8er0ja2bja5s5udpk80c9ohb3.apps.googleusercontent.com",
          "client_type": 3
        }
      ],
      "api_key": [
        {
          "current_key": "AIzaSyC1DQig0kQaHyTmu2tbz-wK66Vx_sIP5lc"
        }
      ],
      "services": {
        "appinvite_service": {
          "other_platform_oauth_client": [
            {
              "client_id": "373748050093-o804hth8er0ja2bja5s5udpk80c9ohb3.apps.googleusercontent.com",
              "client_type": 3
            }
          ]
        }
      }
    }
  ],
  "configuration_version": "1"
}